…
``` r

my_test$category_lvlGain
#> An object of class "Category"
#> Slot "lookupcolor":
#>        Ap        FF        SA        SG        aa        SF      Agua        Iu 
#> "#FFE4B5" "#228B22" "#00FF00" "#CAFF70" "#EE6363" "#00CD00" "#436EEE" "#FFAEB9" 
#>        Ac         R        Im 
#> "#FFA54F" "#68228B" "#636363" 
#> 
#> Slot "categoryData":
#> # A tibble: 23 × 6
#> # Groups:   Period, To [23]
#>    Period    To    Interval  GG_km2   Gtj    St
#>    <fct>     <fct>    <int>   <dbl> <dbl> <dbl>
#>  1 2012-2014 aa           2  14.9   0.510  1.66
#>  2 2012-2014 Ap           2 612.    3.92   1.66
#>  3 2012-2014 Ac           2 110.    1.14   1.66
#>  4 2012-2014 Im           2   0.195 0.337  1.66
#>  5 2012-2014 Iu           2   6.79  2.67   1.66
#>  6 2010-2012 aa           2  47.0   1.18   2.12
#>  7 2010-2012 Ap           2 707.    4.84   2.12
#>  8 2010-2012 Ac           2 189.    2.00   2.12
#>  9 2010-2012 Iu           2   1.90  0.792  2.12
#> 10 2010-2012 R            2   2.76  0.951  2.12
#> # ℹ 13 more rows
…
