Contingency table — contingencyTable • OpenLand
…
totalInterval: <numeric> Total interval of the analysed
   time series in years.

    Examples

# \donttest{
url <- "https://zenodo.org/record/3685230/files/SaoLourencoBasin.rda?download=1"
temp <- tempfile()
download.file(url, temp, mode = "wb") # downloading the online dataset
load(temp)
# the contingencyTable() function, with the SaoLourencoBasin dataset
contingencyTable(input_raster = SaoLourencoBasin, pixelresolution = 30)
#> $lulc_Multistep
#> # A tibble: 130 × 8
#>    Period     From    To      km2 QtPixel Interval yearFrom yearTo
#>    <chr>     <int> <int>    <dbl>   <int>    <int>    <int>  <int>
#>  1 2002-2008     2     2 6543.    7269961        6     2002   2008
#>  2 2002-2008     2    10    1.56     1736        6     2002   2008
#>  3 2002-2008     2    11   55.2     61320        6     2002   2008
#>  4 2002-2008     2    12   23.9     26609        6     2002   2008
#>  5 2002-2008     3     2   37.5     41649        6     2002   2008
#>  6 2002-2008     3     3 2133.    2370190        6     2002   2008
#>  7 2002-2008     3     7  155.     172718        6     2002   2008
#>  8 2002-2008     3    11    7.48     8307        6     2002   2008
#>  9 2002-2008     3    12    0.356     395        6     2002   2008
#> 10 2002-2008     3    13    0.081      90        6     2002   2008
#> # ℹ 120 more rows
#> 
#> $lulc_Onestep
#> # A tibble: 45 × 8
#>    Period     From    To     km2 QtPixel Interval yearFrom yearTo
#>    <chr>     <int> <int>   <dbl>   <int>    <int>    <int>  <int>
#>  1 2002-2014     2     2 6169.   6854816       12     2002   2014
#>  2 2002-2014     2     9    2.39    2651       12     2002   2014
#>  3 2002-2014     2    10   10.4    11513       12     2002   2014
#>  4 2002-2014     2    11  412.    457631       12     2002   2014
#>  5 2002-2014     2    12   29.7    33015       12     2002   2014
#>  6 2002-2014     3     2  110.    121762       12     2002   2014
#>  7 2002-2014     3     3 2091.   2323665       12     2002   2014
#>  8 2002-2014     3     7  116.    129304       12     2002   2014
#>  9 2002-2014     3     9    7.00    7774       12     2002   2014
#> 10 2002-2014     3    11    9.32   10359       12     2002   2014
#> # ℹ 35 more rows
…
