Performs the intensity analysis based on cross-tabulation matrices of each time step — intensityAnalysis • OpenLand
…
SL_2002_2014$tb_legend$color <- c(
  "#FFE4B5", "#228B22", "#00FF00", "#CAFF70",
  "#EE6363", "#00CD00", "#436EEE", "#FFAEB9",
  "#FFA54F", "#68228B", "#636363"
)

intensityAnalysis(dataset = SL_2002_2014, category_n = "Ap", category_m = "SG", area_km2 = TRUE)
#> $lulc_table
#> # A tibble: 130 × 6
#>    Period    From  To         km2 QtPixel Interval
#>    <fct>     <fct> <fct>    <dbl>   <int>    <int>
#>  1 2002-2008 Ap    Ap    6543.    7269961        6
#>  2 2002-2008 Ap    Iu       1.56     1736        6
#>  3 2002-2008 Ap    Ac      55.2     61320        6
#>  4 2002-2008 Ap    R       23.9     26609        6
#>  5 2002-2008 FF    Ap      37.5     41649        6
#>  6 2002-2008 FF    FF    2133.    2370190        6
#>  7 2002-2008 FF    aa     155.     172718        6
#>  8 2002-2008 FF    Ac       7.48     8307        6
#>  9 2002-2008 FF    R        0.356     395        6
#> 10 2002-2008 FF    Im       0.081      90        6
#> # ℹ 120 more rows
…
#> 2 2010-2012         4.23  2.12   1.13
#> 3 2008-2010         0.880 0.440  1.13
#> 4 2002-2008         5.18  0.864  1.13
#> 
#> 
#> $category_lvlGain
#> An object of class "Category"
#> Slot "lookupcolor":
#>        Ap        FF        SA        SG        aa        SF      Agua        Iu 
#> "#FFE4B5" "#228B22" "#00FF00" "#CAFF70" "#EE6363" "#00CD00" "#436EEE" "#FFAEB9" 
#>        Ac         R        Im 
#> "#FFA54F" "#68228B" "#636363" 
#> 
#> Slot "categoryData":
#> # A tibble: 23 × 6
#> # Groups:   Period, To [23]
#>    Period    To    Interval  GG_km2   Gtj    St
#>    <fct>     <fct>    <int>   <dbl> <dbl> <dbl>
#>  1 2012-2014 aa           2  14.9   0.510  1.66
#>  2 2012-2014 Ap           2 612.    3.92   1.66
#>  3 2012-2014 Ac           2 110.    1.14   1.66
#>  4 2012-2014 Im           2   0.195 0.337  1.66
#>  5 2012-2014 Iu           2   6.79  2.67   1.66
#>  6 2010-2012 aa           2  47.0   1.18   2.12
#>  7 2010-2012 Ap           2 707.    4.84   2.12
#>  8 2010-2012 Ac           2 189.    2.00   2.12
#>  9 2010-2012 Iu           2   1.90  0.792  2.12
#> 10 2010-2012 R            2   2.76  0.951  2.12
#> # ℹ 13 more rows
…
#> 10 Im        3     4 Dormant Gain N    
#> 11 Iu        2     4 Dormant Gain N    
#> 12 R         1     4 Dormant Gain N    
#> 
#> 
#> $category_lvlLoss
#> An object of class "Category"
#> Slot "lookupcolor":
#>        Ap        FF        SA        SG        aa        SF      Agua        Iu 
#> "#FFE4B5" "#228B22" "#00FF00" "#CAFF70" "#EE6363" "#00CD00" "#436EEE" "#FFAEB9" 
#>        Ac         R        Im 
#> "#FFA54F" "#68228B" "#636363" 
#> 
#> Slot "categoryData":
#> # A tibble: 29 × 6
#> # Groups:   Period, From [29]
#>    Period    From  Interval GL_km2     Lti    St
#>    <fct>     <fct>    <int>  <dbl>   <dbl> <dbl>
#>  1 2012-2014 FF           2  15.4   0.365   1.66
#>  2 2012-2014 SF           2   3.49  0.224   1.66
#>  3 2012-2014 SA           2  25.3   0.845   1.66
#>  4 2012-2014 SG           2  46.9   0.634   1.66
#>  5 2012-2014 aa           2 541.   13.6     1.66
#>  6 2012-2014 Ap           2 111.    0.759   1.66
#>  7 2012-2014 Ac           2   1.26  0.0133  1.66
#>  8 2010-2012 FF           2  11.1   0.263   2.12
#>  9 2010-2012 SF           2   4.44  0.283   2.12
#> 10 2010-2012 SA           2  29.7   0.974   2.12
#> # ℹ 19 more rows
…
