Quick introduction to the OpenLand package • OpenLand
…
In the lulc_Onestep table, the Yt+1 terms are replaced by YT, where T is the number of time steps, i.e., YT is the last year of the series.

For our study area, contingenceTable(input_raster = SaoLourencoBasin, pixelresolution = 30) returns the following outputs:

# SL_2002_2014 <- contingenceTable(input_raster = SaoLourencoBasin, pixelresolution = 30)

SL_2002_2014
#> $lulc_Multistep
#> # A tibble: 130 x 8
#>    Period     From    To      km2 QtPixel Interval yearFrom yearTo
#>    <chr>     <int> <int>    <dbl>   <int>    <int>    <int>  <int>
#>  1 2002-2008     2     2 6543.    7269961        6     2002   2008
#>  2 2002-2008     2    10    1.56     1736        6     2002   2008
#>  3 2002-2008     2    11   55.2     61320        6     2002   2008
#>  4 2002-2008     2    12   23.9     26609        6     2002   2008
#>  5 2002-2008     3     2   37.5     41649        6     2002   2008
#>  6 2002-2008     3     3 2133.    2370190        6     2002   2008
#>  7 2002-2008     3     7  155.     172718        6     2002   2008
#>  8 2002-2008     3    11    7.48     8307        6     2002   2008
#>  9 2002-2008     3    12    0.356     395        6     2002   2008
#> 10 2002-2008     3    13    0.081      90        6     2002   2008
#> # ... with 120 more rows
#> 
#> $lulc_Onestep
#> # A tibble: 45 x 8
#>    Period     From    To     km2 QtPixel Interval yearFrom yearTo
#>    <chr>     <int> <int>   <dbl>   <int>    <int>    <int>  <int>
#>  1 2002-2014     2     2 6169.   6854816       12     2002   2014
#>  2 2002-2014     2     9    2.39    2651       12     2002   2014
#>  3 2002-2014     2    10   10.4    11513       12     2002   2014
#>  4 2002-2014     2    11  412.    457631       12     2002   2014
#>  5 2002-2014     2    12   29.7    33015       12     2002   2014
#>  6 2002-2014     3     2  110.    121762       12     2002   2014
#>  7 2002-2014     3     3 2091.   2323665       12     2002   2014
#>  8 2002-2014     3     7  116.    129304       12     2002   2014
#>  9 2002-2014     3     9    7.00    7774       12     2002   2014
#> 10 2002-2014     3    11    9.32   10359       12     2002   2014
#> # ... with 35 more rows
…
# it returns a list with 6 objects
names(testSL)
#> [1] "lulc_table"           "interval_lvl"         "category_lvlGain"    
#> [4] "category_lvlLoss"     "transition_lvlGain_n" "transition_lvlLoss_m"

The intensityAnalysis() function returns 6 objects: lulc_table, interval_lvl, category_lvlGain, category_lvlLoss, transition_lvlGain_n, transition_lvlLoss_m. Here, we adopted an object-oriented approach that allows to set specific methods for plotting the intensity objects. Specifically, we used the S4 class, which requires the formal definition of classes and methods (Chambers 2008). The first object is a contingency table similar to the lulc_Multistep object with the unique difference that the columns From and To are replaced by their appropriate denominations according to the LUC legend.

The second object interval_lvl is an Interval object, the third category_lvlGain and the fourth category_lvlLoss are Category objects, whereas the fifth transition_lvlGain_n and the sixth transition_lvlLoss_m are Transition objects.

An Interval object contains one slot containing a table of interval level result (St and U values). A Category object contains three slots: the first contains the colors associated with the legend items as name attributes, the second slot contains a table of the category level result (gain (Gtj) or loss (Lti) values) and the third slot contains a table storing the results of a stationarity test. A Transition object contains three slots: the first contains the color associated with the respective legend item defined as name attribute, the second slot contains a table of the transition level result (gain n (Rtin & Wtn) or loss m (Qtmj & Vtm) values). The third slot contains a table storing the results of a stationarity test. Hereby, Aldwaik and Pontius (2012) consider a stationary case only when the intensities for all time intervals reside on one side of the uniform intensity, i.e. that they are always smaller or larger than the uniform rate over the whole period.

# showing the objects from the intensity analysis for our illustrative case
testSL
#> $lulc_table
#> # A tibble: 130 x 6
#>    Period    From  To         km2 QtPixel Interval
#>    <fct>     <fct> <fct>    <dbl>   <int>    <int>
#>  1 2002-2008 Ap    Ap    6543.    7269961        6
#>  2 2002-2008 Ap    Iu       1.56     1736        6
#>  3 2002-2008 Ap    Ac      55.2     61320        6
#>  4 2002-2008 Ap    R       23.9     26609        6
#>  5 2002-2008 FF    Ap      37.5     41649        6
#>  6 2002-2008 FF    FF    2133.    2370190        6
#>  7 2002-2008 FF    aa     155.     172718        6
#>  8 2002-2008 FF    Ac       7.48     8307        6
#>  9 2002-2008 FF    R        0.356     395        6
#> 10 2002-2008 FF    Im       0.081      90        6
#> # ... with 120 more rows
…
#> 2 2010-2012         4.23  2.12   1.13
#> 3 2008-2010         0.880 0.440  1.13
#> 4 2002-2008         5.18  0.864  1.13
#> 
#> 
#> $category_lvlGain
#> An object of class "Category"
#> Slot "lookupcolor":
#>        Ap        FF        SA        SG        aa        SF      Agua        Iu 
#> "#FFE4B5" "#228B22" "#00FF00" "#CAFF70" "#EE6363" "#00CD00" "#436EEE" "#FFAEB9" 
#>        Ac         R        Im 
#> "#FFA54F" "#68228B" "#636363" 
#> 
#> Slot "categoryData":
#> # A tibble: 23 x 6
#> # Groups:   Period, To [23]
#>    Period    To    Interval  GG_km2   Gtj    St
#>    <fct>     <fct>    <int>   <dbl> <dbl> <dbl>
#>  1 2012-2014 aa           2  14.9   0.510  1.66
#>  2 2012-2014 Ap           2 612.    3.92   1.66
#>  3 2012-2014 Ac           2 110.    1.14   1.66
#>  4 2012-2014 Im           2   0.195 0.337  1.66
#>  5 2012-2014 Iu           2   6.79  2.67   1.66
#>  6 2010-2012 aa           2  47.0   1.18   2.12
#>  7 2010-2012 Ap           2 707.    4.84   2.12
#>  8 2010-2012 Ac           2 189.    2.00   2.12
#>  9 2010-2012 Iu           2   1.90  0.792  2.12
#> 10 2010-2012 R            2   2.76  0.951  2.12
#> # ... with 13 more rows
…
#> 10 Im        3     4 Dormant Gain N    
#> 11 Iu        2     4 Dormant Gain N    
#> 12 R         1     4 Dormant Gain N    
#> 
#> 
#> $category_lvlLoss
#> An object of class "Category"
#> Slot "lookupcolor":
#>        Ap        FF        SA        SG        aa        SF      Agua        Iu 
#> "#FFE4B5" "#228B22" "#00FF00" "#CAFF70" "#EE6363" "#00CD00" "#436EEE" "#FFAEB9" 
#>        Ac         R        Im 
#> "#FFA54F" "#68228B" "#636363" 
#> 
#> Slot "categoryData":
#> # A tibble: 29 x 6
#> # Groups:   Period, From [29]
#>    Period    From  Interval GL_km2     Lti    St
#>    <fct>     <fct>    <int>  <dbl>   <dbl> <dbl>
#>  1 2012-2014 FF           2  15.4   0.365   1.66
#>  2 2012-2014 SF           2   3.49  0.224   1.66
#>  3 2012-2014 SA           2  25.3   0.845   1.66
#>  4 2012-2014 SG           2  46.9   0.634   1.66
#>  5 2012-2014 aa           2 541.   13.6     1.66
#>  6 2012-2014 Ap           2 111.    0.759   1.66
#>  7 2012-2014 Ac           2   1.26  0.0133  1.66
#>  8 2010-2012 FF           2  11.1   0.263   2.12
#>  9 2010-2012 SF           2   4.44  0.283   2.12
#> 10 2010-2012 SA           2  29.7   0.974   2.12
#> # ... with 19 more rows
…
