Contingence Table — contingenceTable • OpenLand
…
totalArea: <tibble>  A table of two columns with the total area of study, contains 2 columns:

area_km2: <numeric> The total area of study in square meter.

QtPixel: <numeric> The total area of study in quantity of pixel

totalInterval: <numeric> The value represinting the whole time points
  interval of time analysed [Yt, Yt+1], in years.

    Examples

contingenceTable(demo_landscape(year = 2000:2005, res = 1), pixelresolution = 1)
#> $lulc_Multistep
#> # A tibble: 125 x 8
#>    Period     From    To      km2 QtPixel Interval yearFrom yearTo
#>    <chr>     <int> <int>    <dbl>   <int>    <int>    <int>  <int>
#>  1 2000-2001     1     1 0.000429     429        1     2000   2001
#>  2 2000-2001     1     2 0.000412     412        1     2000   2001
#>  3 2000-2001     1     3 0.000366     366        1     2000   2001
#>  4 2000-2001     1     4 0.000379     379        1     2000   2001
#>  5 2000-2001     1     5 0.000382     382        1     2000   2001
#>  6 2000-2001     2     1 0.0004       400        1     2000   2001
#>  7 2000-2001     2     2 0.000385     385        1     2000   2001
#>  8 2000-2001     2     3 0.000408     408        1     2000   2001
#>  9 2000-2001     2     4 0.000413     413        1     2000   2001
#> 10 2000-2001     2     5 0.00038      380        1     2000   2001
#> # … with 115 more rows
#> 
#> $lulc_Onestep
#> # A tibble: 25 x 8
#>    Period     From    To      km2 QtPixel Interval yearFrom yearTo
#>    <chr>     <int> <int>    <dbl>   <int>    <int>    <int>  <int>
#>  1 2000-2005     1     1 0.000395     395        5     2000   2005
#>  2 2000-2005     1     2 0.000373     373        5     2000   2005
#>  3 2000-2005     1     3 0.000418     418        5     2000   2005
#>  4 2000-2005     1     4 0.000383     383        5     2000   2005
#>  5 2000-2005     1     5 0.000399     399        5     2000   2005
#>  6 2000-2005     2     1 0.000424     424        5     2000   2005
#>  7 2000-2005     2     2 0.000366     366        5     2000   2005
#>  8 2000-2005     2     3 0.000396     396        5     2000   2005
#>  9 2000-2005     2     4 0.000404     404        5     2000   2005
#> 10 2000-2005     2     5 0.000396     396        5     2000   2005
#> # … with 15 more rows
…
