Perform the intensity analysis from a cross-tabulation matrices — intensityanalysis • OpenLand
…
Aldwaik, S. Z. and Pontius, R. G. (2013) ‘Map errors that could account for deviations
from a uniform intensity of land change’, International Journal of Geographical
Information Science. Taylor & Francis, 27(9), pp. 1717–1739. doi: 10.1080/13658816.2013.787618
.

    Examples

intensityanalysis(dataset = SL_2002_2014, class_n = "Ap", class_m = "SG", area_km2 = TRUE)
#> $lulc_table
#> # A tibble: 130 x 6
#>    Period    From  To         km2 interval QtPixel
#>    <fct>     <fct> <fct>    <dbl>    <dbl>   <int>
#>  1 2002-2008 Ap    Ap    6543.           6 7269961
#>  2 2002-2008 Ap    Iu       1.56         6    1736
#>  3 2002-2008 Ap    Ac      55.2          6   61320
#>  4 2002-2008 Ap    R       23.9          6   26609
#>  5 2002-2008 FF    Ap      37.5          6   41649
#>  6 2002-2008 FF    FF    2133.           6 2370190
#>  7 2002-2008 FF    aa     155.           6  172718
#>  8 2002-2008 FF    Ac       7.48         6    8307
#>  9 2002-2008 FF    R        0.356        6     395
#> 10 2002-2008 FF    Im       0.081        6      90
#> # ... with 120 more rows
…
#> 
#> 
#> $lv2_gain
#> An object of class "IntensityL02"
#> Slot "level":
#> [1] "Category"
#> 
#> Slot "color":
#>        Ap        FF        SA        SG        aa        SF      Agua        Iu 
#> "#CDB79E" "#006400" "#66CD00" "#7FFF00" "#EE2C2C" "#458B00" "#0000CD" "#6B6B6B" 
#>        Ac         R        Im 
#> "#CD950C" "#6B8E23" "#CD00CD" 
#> 
#> Slot "tabela":
#> # A tibble: 23 x 6
#> # Groups:   Period, To [23]
#>    Period    To    interval  GG_km2   Gtj    St
#>    <fct>     <fct>    <dbl>   <dbl> <dbl> <dbl>
#>  1 2012-2014 aa           2  14.9   0.510  1.66
#>  2 2012-2014 Ap           2 612.    3.92   1.66
#>  3 2012-2014 Ac           2 110.    1.14   1.66
#>  4 2012-2014 Im           2   0.195 0.337  1.66
#>  5 2012-2014 Iu           2   6.79  2.67   1.66
#>  6 2010-2012 aa           2  47.0   1.18   2.12
#>  7 2010-2012 Ap           2 707.    4.84   2.12
#>  8 2010-2012 Ac           2 189.    2.00   2.12
#>  9 2010-2012 Iu           2   1.90  0.792  2.12
#> 10 2010-2012 R            2   2.76  0.951  2.12
#> # ... with 13 more rows
#> 
#> 
#> $lv2_loss
#> An object of class "IntensityL02"
#> Slot "level":
#> [1] "Category"
#> 
#> Slot "color":
#>        Ap        FF        SA        SG        aa        SF      Agua        Iu 
#> "#CDB79E" "#006400" "#66CD00" "#7FFF00" "#EE2C2C" "#458B00" "#0000CD" "#6B6B6B" 
#>        Ac         R        Im 
#> "#CD950C" "#6B8E23" "#CD00CD" 
#> 
#> Slot "tabela":
#> # A tibble: 29 x 6
#> # Groups:   Period, From [29]
#>    Period    From  interval GL_km2     Lti    St
#>    <fct>     <fct>    <dbl>  <dbl>   <dbl> <dbl>
#>  1 2012-2014 FF           2  15.4   0.365   1.66
#>  2 2012-2014 SF           2   3.49  0.224   1.66
#>  3 2012-2014 SA           2  25.3   0.845   1.66
#>  4 2012-2014 SG           2  46.9   0.634   1.66
#>  5 2012-2014 aa           2 541.   13.6     1.66
#>  6 2012-2014 Ap           2 111.    0.759   1.66
#>  7 2012-2014 Ac           2   1.26  0.0133  1.66
#>  8 2010-2012 FF           2  11.1   0.263   2.12
#>  9 2010-2012 SF           2   4.44  0.283   2.12
#> 10 2010-2012 SA           2  29.7   0.974   2.12
#> # ... with 19 more rows
…
